…
## Observations: 273
## Variables: 6
## $ state           <chr> "Alabama", "Alabama", "Alabama", "Alabama", "Alaska",…
## $ year            <int> 2004, 2008, 2010, 2014, 2004, 2006, 2008, 2010, 2012,…
## $ tuition         <dbl> 5682.838, 6475.092, 8071.134, 9496.084, 4328.281, 491…
## $ votes           <int> 1890317, 2105622, 1503232, 1191274, 314502, 238307, 3…
## $ eligible_voters <int> 3292608, 3454510, 3472582, 3588783, 452124, 465169, 4…
## $ rate            <dbl> 0.5741093, 0.6095284, 0.4328860, 0.3319437, 0.6956101…

# group_by(), summarize(), select()
temp%>%group_by(state)%>%summarize(mean(tuition), sd(tuition))

## # A tibble: 49 x 3
##    state       `mean(tuition)` `sd(tuition)`
##    <chr>                 <dbl>         <dbl>
##  1 Alabama               7431.         1697.
##  2 Alaska                5376.          716.
##  3 Arizona               7678.         2398.
##  4 Arkansas              6702.          688.
##  5 California            7210.         1920.
##  6 Colorado              7071.         1832.
##  7 Connecticut           9376.         1146.
##  8 Delaware              9616.         1351.
##  9 Florida               5039.         1231.
## 10 Georgia               6010.         1682.
## # … with 39 more rows

temp%>%select(tuition)%>% 
  mutate(median = median(tuition), dev = tuition-median, absdev = abs(dev), MAD=median(absdev))

## # A tibble: 273 x 5
##    tuition median    dev absdev   MAD
##      <dbl>  <dbl>  <dbl>  <dbl> <dbl>
##  1   5683.  7476. -1793.  1793. 1602.
##  2   6475.  7476. -1001.  1001. 1602.
##  3   8071.  7476.   595.   595. 1602.
##  4   9496.  7476.  2020.  2020. 1602.
##  5   4328.  7476. -3148.  3148. 1602.
##  6   4919.  7476. -2557.  2557. 1602.
##  7   5075.  7476. -2400.  2400. 1602.
##  8   5759.  7476. -1717.  1717. 1602.
##  9   6026.  7476. -1450.  1450. 1602.
## 10   6149.  7476. -1327.  1327. 1602.
## # … with 263 more rows

# arrange()
temp%>%arrange(desc(rate))

## # A tibble: 273 x 6
##    state          year tuition   votes eligible_voters  rate
##    <chr>         <int>   <dbl>   <int>           <int> <dbl>
##  1 Minnesota      2004   8144. 2842912         3609185 0.788
##  2 Minnesota      2008   9024. 2921147         3740142 0.781
##  3 Minnesota      2012  10793. 2950780         3861598 0.764
##  4 Wisconsin      2004   6575. 3016288         4006948 0.753
##  5 Maine          2004   7058.  751519         1003792 0.749
##  6 Wisconsin      2008   7373. 2997086         4120694 0.727
##  7 Oregon         2004   6579. 1851671         2550887 0.726
##  8 New Hampshire  2008  11168.  719643          992226 0.725
##  9 Maine          2008   8764.  744456         1036242 0.718
## 10 Colorado       2008   6284. 2422236         3382959 0.716
## # … with 263 more rows

temp%>%group_by(state)%>%summarize(min(eligible_voters), max(eligible_voters))

## # A tibble: 49 x 3
##    state       `min(eligible_voters)` `max(eligible_voters)`
##    <chr>                        <int>                  <int>
##  1 Alabama                    3292608                3588783
##  2 Alaska                      452124                 520562
##  3 Arizona                    3717055                4510186
##  4 Arkansas                   1969208                2117881
##  5 California                21132533               24440416
##  6 Colorado                   3192647                3800664
##  7 Connecticut                2429634                2577311
##  8 Delaware                    584817                 681526
##  9 Florida                   11811921               13914216
## 10 Georgia                    5878186                6725041
## # … with 39 more rows
temp%>%group_by(year)%>%summarize(min(votes), max(votes))

## # A tibble: 6 x 3
##    year `min(votes)` `max(votes)`
##   <int>        <int>        <int>
## 1  2004       245789     12589367
## 2  2006       196217      8899059
## 3  2008       256035     13743177
## 4  2010       190822     10529134
## 5  2012       250701     13202158
## 6  2014       171153      7513972

temp%>%group_by(state, year)%>%summarize(1/rate)

## # A tibble: 273 x 3
## # Groups:   state [49]
##    state    year `1/rate`
##    <chr>   <int>    <dbl>
##  1 Alabama  2004     1.74
##  2 Alabama  2008     1.64
##  3 Alabama  2010     2.31
##  4 Alabama  2014     3.01
##  5 Alaska   2004     1.44
##  6 Alaska   2006     1.95
##  7 Alaska   2008     1.46
##  8 Alaska   2010     1.89
##  9 Alaska   2012     1.70
## 10 Alaska   2014     1.82
## # … with 263 more rows

temp%>%group_by(state)%>%do(data.frame(t(quantile(.$tuition))))

## # A tibble: 49 x 6
## # Groups:   state [49]
##    state         X0.  X25.  X50.   X75.  X100.
##    <chr>       <dbl> <dbl> <dbl>  <dbl>  <dbl>
##  1 Alabama     5683. 6277. 7273.  8427.  9496.
##  2 Alaska      4328. 4958. 5417.  5959.  6149.
##  3 Arizona     5138. 5626. 7449.  9810. 10414.
##  4 Arkansas    5772. 6278. 6659.  7190.  7606.
##  5 California  5286. 5476. 7046.  8939.  9361.
##  6 Colorado    4704. 5768. 7016.  8532.  9299.
##  7 Connecticut 7984. 8368. 9827. 10037. 10664.
##  8 Delaware    8353. 8682. 8995. 10534. 11515.
##  9 Florida     3848. 3953. 4830.  6136.  6495.
## 10 Georgia     4298. 4646. 5630.  7497.  8063.
## # … with 39 more rows
…
